…
``` r
month_df = 
  tibble(
    month = 1:12,
    month_name = month.name
  )

precip_df =
  bind_rows(precip_2018, precip_2017)
  
left_join(precip_df, month_df, by = "month")
```

    ## # A tibble: 24 x 4
    ##     year month total month_name
    ##    <dbl> <dbl> <dbl> <chr>     
    ##  1  2018     1  0.94 January   
    ##  2  2018     2  4.8  February  
    ##  3  2018     3  2.69 March     
    ##  4  2018     4  4.69 April     
    ##  5  2018     5  9.27 May       
    ##  6  2018     6  4.77 June      
    ##  7  2018     7 10.2  July      
    ##  8  2018     8  6.45 August    
    ##  9  2018     9 10.5  September 
    ## 10  2018    10  2.12 October   
    ## # … with 14 more rows
…
Specify which columns to keep

``` r
NYCT1_data = 
  select(NYCTransit_data, line:entry, vending, ada)
```

Character to Logical Expression Conversion

``` r
NYCT1_data %>% 
  mutate(entry = recode(entry, YES = "TRUE", NO = "FALSE"))
```

    ## # A tibble: 1,868 x 19
    ##    line  station_name station_latitude station_longitu… route1 route2 route3
    ##    <chr> <chr>                   <dbl>            <dbl> <chr>  <chr>  <chr> 
    ##  1 4 Av… 25th St                  40.7            -74.0 R      <NA>   <NA>  
    ##  2 4 Av… 25th St                  40.7            -74.0 R      <NA>   <NA>  
    ##  3 4 Av… 36th St                  40.7            -74.0 N      R      <NA>  
    ##  4 4 Av… 36th St                  40.7            -74.0 N      R      <NA>  
    ##  5 4 Av… 36th St                  40.7            -74.0 N      R      <NA>  
    ##  6 4 Av… 45th St                  40.6            -74.0 R      <NA>   <NA>  
    ##  7 4 Av… 45th St                  40.6            -74.0 R      <NA>   <NA>  
    ##  8 4 Av… 45th St                  40.6            -74.0 R      <NA>   <NA>  
    ##  9 4 Av… 45th St                  40.6            -74.0 R      <NA>   <NA>  
    ## 10 4 Av… 53rd St                  40.6            -74.0 R      <NA>   <NA>  
    ## # … with 1,858 more rows, and 12 more variables: route4 <chr>, route5 <chr>,
    ## #   route6 <chr>, route7 <chr>, route8 <dbl>, route9 <dbl>, route10 <dbl>,
    ## #   route11 <dbl>, entrance_type <chr>, entry <chr>, vending <chr>, ada <lgl>
…
Distinct Stations

``` r
  distinct(NYCT1_data, station_name, line)
```

    ## # A tibble: 465 x 2
    ##    line     station_name            
    ##    <chr>    <chr>                   
    ##  1 4 Avenue 25th St                 
    ##  2 4 Avenue 36th St                 
    ##  3 4 Avenue 45th St                 
    ##  4 4 Avenue 53rd St                 
    ##  5 4 Avenue 59th St                 
    ##  6 4 Avenue 77th St                 
    ##  7 4 Avenue 86th St                 
    ##  8 4 Avenue 95th St                 
    ##  9 4 Avenue 9th St                  
    ## 10 4 Avenue Atlantic Av-Barclays Ctr
    ## # … with 455 more rows
…
Distinct Stations Serving A train

``` r
filter(NYCT_tidy, route_name == "A" ) %>% 
distinct(line, station_name)
```

    ## # A tibble: 60 x 2
    ##    line            station_name                 
    ##    <chr>           <chr>                        
    ##  1 42nd St Shuttle Times Square                 
    ##  2 8 Avenue        125th St                     
    ##  3 8 Avenue        145th St                     
    ##  4 8 Avenue        14th St                      
    ##  5 8 Avenue        168th St - Washington Heights
    ##  6 8 Avenue        175th St                     
    ##  7 8 Avenue        181st St                     
    ##  8 8 Avenue        190th St                     
    ##  9 8 Avenue        34th St                      
    ## 10 8 Avenue        42nd St                      
    ## # … with 50 more rows
…
clean_month_pols = left_join(clean_pols, month_pols, by = "month")

clean_month_pols %>% 
  mutate(president = case_when(
    prez_gop == 1 ~ "gop",
    prez_dem == 1 ~ "dem")) %>% 
    select(-prez_gop, -prez_dem, -month, -day)
```

    ## # A tibble: 822 x 10
    ##    year  gov_gop sen_gop rep_gop gov_dem sen_dem rep_dem month_name months
    ##    <chr>   <dbl>   <dbl>   <dbl>   <dbl>   <dbl>   <dbl> <chr>       <dbl>
    ##  1 1947       23      51     253      23      45     198 January         1
    ##  2 1947       23      51     253      23      45     198 February        2
    ##  3 1947       23      51     253      23      45     198 March           3
    ##  4 1947       23      51     253      23      45     198 April           4
    ##  5 1947       23      51     253      23      45     198 May             5
    ##  6 1947       23      51     253      23      45     198 June            6
    ##  7 1947       23      51     253      23      45     198 July            7
    ##  8 1947       23      51     253      23      45     198 August          8
    ##  9 1947       23      51     253      23      45     198 September       9
    ## 10 1947       23      51     253      23      45     198 October        10
    ## # … with 812 more rows, and 1 more variable: president <chr>
…
month_snp = 
  tibble( 
   month = (1:12),
    month_name = month.name) %>% 
    mutate(month = as.numeric(month))

clean_month_snp = left_join(clean_snp, month_snp, by = "month")

clean_month_snp %>% 
  relocate(year, month)
```

    ## # A tibble: 787 x 5
    ##    year  month day   close month_name
    ##    <chr> <dbl> <chr> <dbl> <chr>     
    ##  1 2015      7 1     2080. July      
    ##  2 2015      6 1     2063. June      
    ##  3 2015      5 1     2107. May       
    ##  4 2015      4 1     2086. April     
    ##  5 2015      3 2     2068. March     
    ##  6 2015      2 2     2104. February  
    ##  7 2015      1 2     1995. January   
    ##  8 2014     12 1     2059. December  
    ##  9 2014     11 3     2068. November  
    ## 10 2014     10 1     2018. October   
    ## # … with 777 more rows
…
    ## Joining, by = c("year", "month", "day", "month_name")

``` r
final_join =  
  left_join(pols_snp, intermed_unemploy)
```

    ## Joining, by = c("year", "month")

``` r
final_join
```

    ## # A tibble: 822 x 16
    ##     year month day   prez_gop gov_gop sen_gop rep_gop prez_dem gov_dem sen_dem
    ##    <dbl> <dbl> <chr>    <dbl>   <dbl>   <dbl>   <dbl>    <dbl>   <dbl>   <dbl>
    ##  1  1947     1 15           0      23      51     253        1      23      45
    ##  2  1947     2 15           0      23      51     253        1      23      45
    ##  3  1947     3 15           0      23      51     253        1      23      45
    ##  4  1947     4 15           0      23      51     253        1      23      45
    ##  5  1947     5 15           0      23      51     253        1      23      45
    ##  6  1947     6 15           0      23      51     253        1      23      45
    ##  7  1947     7 15           0      23      51     253        1      23      45
    ##  8  1947     8 15           0      23      51     253        1      23      45
    ##  9  1947     9 15           0      23      51     253        1      23      45
    ## 10  1947    10 15           0      23      51     253        1      23      45
    ## # … with 812 more rows, and 6 more variables: rep_dem <dbl>, month_name <chr>,
    ## #   months <dbl>, close <dbl>, `percent unemployed` <dbl>, `(...)` <chr>
…
